[
	{
		"class": "User",
		"attributes": [
			{
				"name": "email",
				"type": "String"
			},
			{
				"name": "age",
				"type": "Integer"
			},
			{
				"name": "gender",
				"type": "String"
			}
		],
		"methods": [
			{
				"name": "follow",
				"desc": "Follow a user"
			},
			{
				"name": "unfollow",
				"desc": "Unfollow a user"
			},
			{
				"name": "public_timeline",
				"desc": "Display public timeline"
			},
			{
				"name": "user_timeline",
				"desc": "Display user timeline"
			},
			{
				"name": "generate_ad",
				"desc": "Dummy implementation of generating advertisements"
			}
		]
	},
	{
		"class": "Message",
		"attributes": [
			{
				"name": "text",
				"type": "String"
			},
			{
				"name": "pub_date",
				"type": "Integer"
			}
		],
		"methods": [
			{
				"name": "add_message",
				"desc": "create new message"
			}
		]
	},
	{
		"class": "Authorship",
		"isAssociation": true,
		"ends": [
			{
				"name": "author",
				"target": "User",
				"mult": "1"
			},
			{
				"name": "messages",
				"target": "Message",
				"mult": "*"
			}
		]
	},
	{
		"class": "Follow",
		"isAssociation": true,
		"ends": [
			{
				"name": "follows",
				"target": "User",
				"mult": "*"
			},
			{
				"name": "followers",
				"target": "User",
				"mult": "*"
			}
		]
	}
]